%YAML 1.1
%TAG !u! tag:unity3d.com,2011:
--- !u!1045 &1
EditorBuildSettings:
  m_ObjectHideFlags: 0
  serializedVersion: 2
  m_Scenes:
  - enabled: 0
    path: Assets/Scenes/Wolf.unity
    guid: 5be27aeb2a415e7469793280a66ed4db
  - enabled: 1
    path: Assets/Scenes/MainMenu.unity
    guid: 364e9cb8e805cd04aa726b866128e430
  - enabled: 1
    path: Assets/Scenes/Game 1.unity
    guid: e31181317fc362d449e559d0496a5792
  - enabled: 1
    path: Assets/Scenes/Game 2.unity
    guid: 65f13e264a8bb684d8d520bd3af28410
  - enabled: 1
    path: Assets/Scenes/Game 3.unity
    guid: 56d7c4a9ffe5cb645b95a74ec02024f2
